<svg width="942" height="373" viewBox="0 0 942 373" fill="none" xmlns="http://www.w3.org/2000/svg">
<path opacity="0.6" d="M952 -61L0.0925776 -61C-1.26085 -20.9095 12.2734 19.6315 37.5373 50.7129C65.508 84.9475 107.69 107.47 151.676 111.75C189.572 115.353 227.693 105.894 265.815 104.993C303.936 104.092 346.343 114.903 366.87 146.885C393.713 189.003 371.382 245.76 385.593 293.733C401.608 347.338 463.189 377.969 518.679 372.338C574.395 366.707 623.344 332.473 661.465 291.481C699.587 250.715 729.362 202.742 765.002 159.723C786.882 133.371 818.237 106.344 851.396 115.578C882.975 124.137 897.186 161.3 898.089 193.958C898.991 226.616 891.773 259.949 900.344 291.256C907.563 317.833 927.413 340.356 951.774 352.968V-61H952Z" fill="url(#paint0_linear)"/>
<defs>
<linearGradient id="paint0_linear" x1="476" y1="5.99999" x2="446.132" y2="174.023" gradientUnits="userSpaceOnUse">
<stop offset="0.162639" stop-color="#36D0CE"/>
<stop offset="0.935795" stop-color="#C7FFFF"/>
</linearGradient>
</defs>
</svg>
