<svg width="114" height="125" viewBox="0 0 114 125" fill="none" xmlns="http://www.w3.org/2000/svg">
<g clip-path="url(#clip0)">
<path d="M6.26082 17.4485C3.35605 18.0421 1.3829 20.5814 1.45226 23.534C1.48174 25.13 2.20634 26.6433 3.31675 27.7217C4.49576 28.8455 6.0373 29.4205 7.62168 29.3341L7.73559 29.3108C9.44552 29.258 11.4868 29.3749 13.8024 29.673C15.81 29.9154 17.9665 30.3055 20.1462 30.8094C21.5726 31.1112 22.9653 31.5386 24.4149 31.9544C25.561 36.111 27.719 42.3155 31.4962 48.6045C33.1953 51.402 34.1826 53.0396 34.928 54.074C35.5932 55.0061 37.5887 57.8024 40.9491 57.1157C41.2908 57.0458 41.564 56.9307 41.8371 56.8155C42.1722 57.8744 42.5189 58.9903 42.7272 59.7191C43.5486 62.5773 44.1152 64.4789 45.6941 65.8176C46.7127 66.7368 47.9915 67.1875 49.405 67.136C48.7322 72.5543 47.3302 80.7917 46.3718 83.3609C45.7631 85.028 45.8845 86.7833 46.7683 88.2047C48.215 90.6384 50.8504 91.0493 52.6185 91.2813C53.0521 91.3707 53.7136 91.4135 54.1588 91.5599C54.38 92.642 54.957 94.3042 56.5347 95.3465C57.6322 96.0715 58.9331 96.3397 60.243 96.072C60.9835 95.9207 62.0307 95.5287 63.0069 94.4985C63.0069 94.4985 63.0975 94.3613 63.1545 94.3497C63.3021 94.2008 63.438 93.995 63.5856 93.8462L63.631 93.7776C63.8575 93.4346 64.0388 93.1603 64.2537 92.7603L64.4687 92.3604C64.4687 92.3604 64.7626 91.7663 64.8196 91.7547C65.6868 91.9334 66.6447 91.975 67.6129 91.7772C69.4925 91.3931 70.7651 90.3617 71.6261 89.0583C71.7891 89.8557 71.9171 90.4822 72.0451 91.1088C72.7551 94.5831 72.8844 95.506 73.3787 96.4731C73.816 97.4517 74.5485 98.1327 75.417 98.6079C75.5542 98.6986 75.7483 98.7776 75.8739 98.8112C76.3878 99.0029 76.9469 99.126 77.4944 99.1921C77.6084 99.1688 77.677 99.2141 77.7909 99.1908C78.1442 99.178 78.4407 99.1767 78.7254 99.1185C79.0102 99.0603 79.2381 99.0138 79.5112 98.8986C79.5681 98.887 79.6704 98.8067 79.7274 98.7951L79.8866 98.7032C80.0458 98.6114 80.2737 98.5648 80.4898 98.4613L80.8199 98.3345C81.0361 98.231 81.3093 98.1158 81.5941 98.0576C81.7649 98.0227 81.9927 97.9761 82.5997 98.6235C86.5275 102.746 90.3555 107.541 90.4241 107.586C91.3312 109.121 93.1239 109.764 94.8326 109.415C95.0034 109.38 95.2313 109.333 95.3905 109.241C97.2235 108.629 98.5273 106.88 98.5419 104.919C98.6414 98.7273 98.9184 91.3725 99.2374 88.5779C100.432 88.0371 101.249 87.0988 101.711 85.877C102.117 84.6667 101.963 83.3335 101.377 82.2072L101.273 81.991C100.998 81.5133 100.308 80.1709 99.4346 78.51C98.0669 75.8821 97.0551 73.8342 96.3188 72.2639C96.4444 72.2976 96.5583 72.2743 96.6838 72.308C97.1058 72.3404 97.5162 72.3159 97.9148 72.2344C99.1679 71.9784 100.259 71.2213 100.973 70.0668C101.414 69.3239 101.605 68.5137 101.624 67.7383C102.284 67.4847 102.898 67.0033 103.374 66.4313C104.282 65.3558 104.641 63.9177 104.361 62.5508C104.152 61.5256 103.612 60.6271 102.823 59.9578L102.319 59.5267L102.033 59.2884C101.747 59.0502 101.45 58.755 101.152 58.4599C100.545 57.8125 100.167 57.4151 99.9265 57.1083C99.7727 55.775 99.0377 54.5011 97.803 53.6854C97.5403 53.5611 92.0875 50.1066 83.6173 47.5655C83.7637 47.1202 83.7845 46.6413 83.8053 46.1623C83.6544 42.8111 80.8561 41.6029 77.0069 39.8974C76.55 39.6941 76.0245 39.4455 75.5106 39.2538C75.8853 36.1512 73.9842 34.107 66.3829 29.4302L63.9254 33.3738L66.3829 29.4302L66.3143 29.3849C65.9144 29.1699 65.5028 28.898 65.1029 28.6831C60.371 25.8526 55.2068 23.2292 50.9925 21.4797C45.9899 19.3572 40.0823 18.9031 33.8741 20.1718C31.9376 20.5675 30.2638 21.0876 28.9317 21.5378C26.945 20.8164 24.9245 20.2206 22.9273 19.7388C20.3593 19.0769 17.8146 18.5288 15.3734 18.197C13.1716 17.8756 10.434 17.545 7.35587 17.5807C7.29892 17.5924 7.24196 17.604 7.24196 17.604C6.89898 17.3774 6.5456 17.3903 6.26082 17.4485Z" fill="white"/>
<path d="M27.9269 26.7867C27.9269 26.7867 29.5406 36.4252 35.4763 46.3078C41.412 56.1904 39.0453 51.868 42.5986 50.9638C46.1066 50.1283 47.4184 61.1932 48.78 62.339C50.1531 63.5417 53.544 59.2293 54.3629 61.4947C55.2505 63.8054 51.861 82.0612 50.7446 85.0188C49.6853 87.9646 57.6775 85.2634 58.5762 90.2418C59.5319 95.2087 61.0637 85.2834 64.0224 86.6961C66.9812 88.1089 67.925 87.5007 69.0779 82.3996C70.1623 77.2532 73.5306 75.7342 75.1601 83.7081C76.7896 91.6819 77.1297 93.9265 77.4518 94.632C77.774 95.3376 81.6904 91.2738 85.7786 95.6005C89.8669 99.9272 93.9007 104.858 93.9007 104.858C93.9007 104.858 94.2378 87.3449 94.9513 86.1905C95.7217 85.0243 97.2466 84.3567 97.2466 84.3567C97.2466 84.3567 89.2835 69.4889 89.94 68.346C90.5964 67.2032 96.983 67.6781 96.983 67.6781C96.983 67.6781 95.0316 64.5168 96.4542 63.9294C97.8886 63.3989 99.8496 63.4135 99.8496 63.4135C99.8496 63.4135 94.6663 58.9546 95.3785 57.5037C95.3785 57.5037 89.7885 53.9586 81.1022 51.5209C72.4158 49.0833 78.3226 46.6301 79.199 46.273C80.0754 45.9159 71.841 42.4959 69.6147 41.7641C67.4454 41.0208 69.034 39.2127 70.7647 38.6811C72.564 38.1947 59.4065 29.8472 49.2073 25.5233C39.0081 21.1994 27.9269 26.7867 27.9269 26.7867Z" fill="#FF7F30"/>
<path d="M35.4764 46.3078C35.545 46.3532 35.5683 46.4671 35.5799 46.524C37.9369 40.3462 40.4801 35.0797 42.5176 34.3073C44.8283 33.4197 54.3371 33.494 64.9874 33.9282C64.2445 33.4867 63.433 32.9999 62.6099 32.4561C54.7192 32.1698 47.297 32.1439 43.7191 32.6377C43.024 32.7204 42.523 32.8822 42.136 33.0206C39.7683 33.9198 37.088 39.0956 34.7867 44.9654C34.9938 45.3978 35.2008 45.8301 35.4764 46.3078Z" fill="#FFE660" fill-opacity="0.3"/>
<path d="M80.8851 70.4931C80.2586 70.6211 79.7926 70.9537 79.5556 71.5361C78.3474 74.3344 77.7668 85.43 77.5088 94.6203C77.6123 94.8365 78.147 94.5492 78.9094 94.2154C79.1882 84.5462 79.8075 74.5107 80.8577 72.1007C80.9483 71.9635 80.9936 71.8949 81.1075 71.8716C83.3521 71.5316 90.5841 77.8859 97.1443 84.4369C97.2013 84.4252 97.2013 84.4252 97.2013 84.4252C97.2013 84.4252 96.3395 82.8213 95.2474 80.6711C89.707 75.3358 83.54 70.1285 80.8851 70.4931Z" fill="#FFE660" fill-opacity="0.3"/>
<path d="M97.8694 61.5635C86.0767 57.8619 70.9406 53.4788 67.4883 54.0063C63.0561 54.6747 60.5641 77.6126 59.3914 91.618C59.8121 91.354 60.3314 90.1205 60.9878 88.9777C62.5327 71.2768 65.1127 55.7378 67.6421 55.3396C70.8096 54.8703 86.5165 59.4334 99.1428 63.4393C99.4962 63.4264 99.7356 63.4368 99.7356 63.4368C99.7356 63.4368 98.8543 62.6082 97.8694 61.5635Z" fill="#FFE660" fill-opacity="0.3"/>
<path d="M55.1715 42.2236C53.3061 43.2575 50.4219 51.5011 47.8134 60.2224C48.1135 61.1104 48.3788 61.8276 48.6311 62.1913C51.4754 52.5912 54.3363 44.2337 55.8263 43.3952C57.5325 42.4531 68.1878 44.0731 79.1757 46.1591C79.3001 45.8963 77.5178 45.0145 75.4159 44.02C66.2543 42.4508 57.0823 41.1211 55.1715 42.2236Z" fill="#FFE660" fill-opacity="0.3"/>
<path d="M7.41929 21.9588C9.96153 21.9139 12.3341 22.2004 14.7184 22.5439C17.1026 22.8873 19.4648 23.4133 21.7817 24.0079C26.4155 25.197 30.903 26.8313 35.2324 28.854C43.8797 32.8424 51.8264 38.3386 58.7853 44.8081C65.7895 51.2089 71.8175 58.64 77.0378 66.4734C82.2697 74.3638 86.6484 82.7252 90.3787 91.3972C86.4322 82.8287 81.8373 74.5708 76.4578 66.8293C71.09 59.1446 64.869 51.931 57.8544 45.7696C50.8398 39.6082 42.8943 34.4084 34.3622 30.6932C30.1247 28.8298 25.6605 27.3093 21.1755 26.2678C18.9272 25.7186 16.6453 25.2949 14.3296 24.9967C12.0709 24.687 9.66463 24.526 7.54436 24.6033L7.48741 24.6149C6.7237 24.6523 6.12837 24.062 6.09097 23.2983C6.07685 22.6485 6.65558 21.9962 7.41929 21.9588Z" fill="#B61F00"/>
</g>
<defs>
<clipPath id="clip0">
<rect width="93.1298" height="107.838" fill="white" transform="matrix(0.979751 -0.200218 -0.200218 -0.979751 21.9277 124.313)"/>
</clipPath>
</defs>
</svg>
